Ingresar la siguiente configuracion wn  ~/.ssh/config


Host github.com 
   Hostname github.com 
   User git 
   IdentityFile "~/.ssh/id_..."
   TCPKeepAlive yes 
   IdentitiesOnly yes 
                                                                                                                                                                        
Host bitbucket.org                                                                                                                                                       
   Hostname bitbucket.org                                                                                                                                               
   User git                                                                                                                                                             
   IdentityFile "~/.ssh/id_r..."   
   TCPKeepAlive yes    
   IdentitiesOnly yes    
